\relax 
\providecommand\hyper@newdestlabel[2]{}
\catcode `"\active 
\catcode `<\active 
\catcode `>\active 
\@nameuse{es@quoting}
\providecommand\HyperFirstAtBeginDocument{\AtBeginDocument}
\HyperFirstAtBeginDocument{\ifx\hyper@anchor\@undefined
\global\let\oldcontentsline\contentsline
\gdef\contentsline#1#2#3#4{\oldcontentsline{#1}{#2}{#3}}
\global\let\oldnewlabel\newlabel
\gdef\newlabel#1#2{\newlabelxx{#1}#2}
\gdef\newlabelxx#1#2#3#4#5#6{\oldnewlabel{#1}{{#2}{#3}}}
\AtEndDocument{\ifx\hyper@anchor\@undefined
\let\contentsline\oldcontentsline
\let\newlabel\oldnewlabel
\fi}
\fi}
\global\let\hyper@last\relax 
\gdef\HyperFirstAtBeginDocument#1{#1}
\providecommand\HyField@AuxAddToFields[1]{}
\providecommand\HyField@AuxAddToCoFields[2]{}
\select@language{spanish}
\@writefile{toc}{\select@language{spanish}}
\@writefile{lof}{\select@language{spanish}}
\@writefile{lot}{\select@language{spanish}}
\@writefile{toc}{\contentsline {section}{\numberline {I}Introducci\IeC {\'o}n}{1}{section.1}}
\@writefile{toc}{\contentsline {subsection}{\numberline {\unhbox \voidb@x \hbox {I-A}}Teor\IeC {\'\i }a de Juegos}{1}{subsection.1.1}}
\@writefile{lof}{\contentsline {figure}{\numberline {1}{\ignorespaces Ejemplo sencillo de la estrategia Minimax.\relax }}{1}{figure.caption.1}}
\providecommand*\caption@xref[2]{\@setref\relax\@undefined{#1}}
\newlabel{fig:ejemplominimax}{{1}{1}{Ejemplo sencillo de la estrategia Minimax.\relax }{figure.caption.1}{}}
\@writefile{toc}{\contentsline {subsection}{\numberline {\unhbox \voidb@x \hbox {I-B}}Damas}{1}{subsection.1.2}}
\@writefile{toc}{\contentsline {section}{\numberline {II}Funci\IeC {\'o}n de Utilidad}{1}{section.2}}
\newlabel{cod:utilidad1}{{1}{1}{Código de función de utilidad 1}{lstlisting.1}{}}
\@writefile{lol}{\contentsline {lstlisting}{\numberline {1}C\IeC {\'o}digo de funci\IeC {\'o}n de utilidad 1}{1}{lstlisting.1}}
\newlabel{cod:utilidad2}{{2}{2}{Código de función de utilidad 2}{lstlisting.2}{}}
\@writefile{lol}{\contentsline {lstlisting}{\numberline {2}C\IeC {\'o}digo de funci\IeC {\'o}n de utilidad 2}{2}{lstlisting.2}}
\@writefile{toc}{\contentsline {section}{\numberline {III}Implementaci\IeC {\'o}n Minimax}{2}{section.3}}
\newlabel{cod:minimax}{{3}{2}{Implementación Minimax}{lstlisting.3}{}}
\@writefile{lol}{\contentsline {lstlisting}{\numberline {3}Implementaci\IeC {\'o}n Minimax}{2}{lstlisting.3}}
\@writefile{toc}{\contentsline {section}{\numberline {IV}Implementaci\IeC {\'o}n}{2}{section.4}}
\@writefile{toc}{\contentsline {subsection}{\numberline {\unhbox \voidb@x \hbox {IV-A}}Tablero}{2}{subsection.4.1}}
\@writefile{lof}{\contentsline {figure}{\numberline {2}{\ignorespaces Representaci\IeC {\'o}n del Juego.\relax }}{2}{figure.caption.2}}
\newlabel{fig:tablero}{{2}{2}{Representación del Juego.\relax }{figure.caption.2}{}}
\@writefile{toc}{\contentsline {subsection}{\numberline {\unhbox \voidb@x \hbox {IV-B}}Opciones}{2}{subsection.4.2}}
\@writefile{lof}{\contentsline {figure}{\numberline {3}{\ignorespaces Escogiendo funci\IeC {\'o}n de utilidad.\relax }}{3}{figure.caption.3}}
\newlabel{fig:inicio}{{3}{3}{Escogiendo función de utilidad.\relax }{figure.caption.3}{}}
\@writefile{lof}{\contentsline {figure}{\numberline {4}{\ignorespaces Humano VS IA.\relax }}{3}{figure.caption.4}}
\newlabel{fig:humanvsia}{{4}{3}{Humano VS IA.\relax }{figure.caption.4}{}}
\@writefile{toc}{\contentsline {section}{\numberline {V}Validaci\IeC {\'o}n}{3}{section.5}}
\@writefile{lof}{\contentsline {figure}{\numberline {5}{\ignorespaces Primeros movimientos del juego IA vs IA.\relax }}{3}{figure.caption.5}}
\newlabel{fig:game}{{5}{3}{Primeros movimientos del juego IA vs IA.\relax }{figure.caption.5}{}}
\@writefile{lof}{\contentsline {figure}{\numberline {6}{\ignorespaces Movimientos finales del juego IA vs IA.\relax }}{3}{figure.caption.6}}
\newlabel{fig:gamefinal}{{6}{3}{Movimientos finales del juego IA vs IA.\relax }{figure.caption.6}{}}
\@writefile{toc}{\contentsline {subsection}{\numberline {\unhbox \voidb@x \hbox {V-A}}Diferentes funciones de utilidad}{3}{subsection.5.1}}
\@writefile{lof}{\contentsline {figure}{\numberline {7}{\ignorespaces Movimientos iniciales del juego IA vs IA con diferente funci\IeC {\'o}n de utilidad.\relax }}{4}{figure.caption.7}}
\newlabel{fig:game2}{{7}{4}{Movimientos iniciales del juego IA vs IA con diferente función de utilidad.\relax }{figure.caption.7}{}}
\@writefile{lof}{\contentsline {figure}{\numberline {8}{\ignorespaces Movimientos finales del juego IA vs IA con diferente funci\IeC {\'o}n de utilidad.\relax }}{4}{figure.caption.8}}
\newlabel{fig:gamefinal2}{{8}{4}{Movimientos finales del juego IA vs IA con diferente función de utilidad.\relax }{figure.caption.8}{}}
\@writefile{toc}{\contentsline {section}{\numberline {VI}Conclusi\IeC {\'o}n}{4}{section.6}}
\@writefile{toc}{\contentsline {section}{\numberline {VII}Bibliograf\IeC {\'\i }a}{4}{section.7}}
